{
    "Title": "Changelog",
    "Releases": [
        {
            "Version": "0.1.0",
            "Date":"2023-06-06T00:00:00Z",
            "Notice": "",
            "ChangeGroups": [
                {
                    "Category": "Added",
                    "Changes": [
                        "Add the first feature",
                        "Add another feature"
                    ]
                }
            ]
        }
    ]
}
